<svg xmlns="http://www.w3.org/2000/svg" width="21" height="21" viewBox="0 0 21 21">
    <path fill="#343434" fill-rule="evenodd" d="M10.5 21C4.701 21 0 16.299 0 10.5S4.701 0 10.5 0 21 4.701 21 10.5 16.299 21 10.5 21zm5.595-7.261c-.032-.158-.13-.289-.297-.392l-2.288-1.352h-.012a.62.62 0 0 0-.32-.071.726.726 0 0 0-.498.19l-.676.688a.198.198 0 0 1-.077.041.282.282 0 0 1-.077.018l-.148-.03a1.843 1.843 0 0 1-.427-.172 5.477 5.477 0 0 1-.694-.445 7.855 7.855 0 0 1-.948-.848 7.705 7.705 0 0 1-.842-.943 5.228 5.228 0 0 1-.439-.694 2.143 2.143 0 0 1-.213-.57c0-.023.006-.053.018-.089a.198.198 0 0 1 .041-.077l.581-.581a.74.74 0 0 0 .202-.38.578.578 0 0 0-.06-.415L7.653 5.208a.825.825 0 0 0-.202-.219.442.442 0 0 0-.273-.089.522.522 0 0 0-.379.166L5.222 6.644a.89.89 0 0 0-.201.279c-.056.115-.091.227-.107.338l-.012.237a2.94 2.94 0 0 0 .047.588c.04.249.115.545.226.89.11.343.276.727.498 1.15.221.423.513.884.877 1.382.364.499.822 1.02 1.375 1.567.696.704 1.352 1.257 1.969 1.66.616.404 1.167.707 1.654.908.486.202.897.328 1.233.38.336.051.579.077.729.077a1.613 1.613 0 0 0 .225-.012 1.15 1.15 0 0 0 .338-.107.888.888 0 0 0 .279-.201l1.577-1.566a.542.542 0 0 0 .166-.475z"/>
</svg>
