<svg xmlns="http://www.w3.org/2000/svg" width="14" height="13" viewBox="0 0 14 13">
    <path fill="none" fill-rule="evenodd" stroke="#343434" d="M5.45 8.529a4.485 4.485 0 1 1 6.343-6.343A4.485 4.485 0 0 1 5.45 8.529zm-.354-.354l.708.707-4.096 4.096-.707-.708 4.095-4.095z"/>
</svg>
